{
  "success": true,
  "total": 10,
  "page": 1,
  "nextPage": 2,
  "data": [
    {
      "date": "2021.05.21",
      "time": "23:25",
      "title": "私の日記の記録が一部表示されます。",
      "description": "テキストテキストテキストテキストテキストテキストテキストテキストテキストテキストテキストテキストテキストテキストテキストテキストテキストテキスト…"
    },
    {
      "date": "2021.05.21",
      "time": "23:25",
      "title": "私の日記の記録が一部表示されます。",
      "description": "テキストテキストテキストテキストテキストテキストテキストテキストテキストテキストテキストテキストテキストテキストテキストテキストテキストテキスト…"
    },
    {
      "date": "2021.05.21",
      "time": "23:25",
      "title": "私の日記の記録が一部表示されます。",
      "description": "テキストテキストテキストテキストテキストテキストテキストテキストテキストテキストテキストテキストテキストテキストテキストテキストテキストテキスト…"
    },
    {
      "date": "2021.05.21",
      "time": "23:25",
      "title": "私の日記の記録が一部表示されます。",
      "description": "テキストテキストテキストテキストテキストテキストテキストテキストテキストテキストテキストテキストテキストテキストテキストテキストテキストテキスト…"
    },
    {
      "date": "2021.05.21",
      "time": "23:25",
      "title": "私の日記の記録が一部表示されます。",
      "description": "テキストテキストテキストテキストテキストテキストテキストテキストテキストテキストテキストテキストテキストテキストテキストテキストテキストテキスト…"
    },
    {
      "date": "2021.05.21",
      "time": "23:25",
      "title": "私の日記の記録が一部表示されます。",
      "description": "テキストテキストテキストテキストテキストテキストテキストテキストテキストテキストテキストテキストテキストテキストテキストテキストテキストテキスト…"
    },
    {
      "date": "2021.05.21",
      "time": "23:25",
      "title": "私の日記の記録が一部表示されます。",
      "description": "テキストテキストテキストテキストテキストテキストテキストテキストテキストテキストテキストテキストテキストテキストテキストテキストテキストテキスト…"
    },
    {
      "date": "2021.05.21",
      "time": "23:25",
      "title": "私の日記の記録が一部表示されます。",
      "description": "テキストテキストテキストテキストテキストテキストテキストテキストテキストテキストテキストテキストテキストテキストテキストテキストテキストテキスト…"
    }
  ]
}
