{
  "success": true,
  "total": 10,
  "page": 1,
  "nextPage": 2,
  "data": [
    {
      "title": "魚を食べて頭もカラダも元気に！知っておきたい魚を食べるメリ…",
      "link": "#",
      "imgSrc": "/images/column-1.jpg",
      "time": "2021.05.17   23:25",
      "tags": ["#魚料理", "#和食", "#DHA"]
    },
    {
      "title": "魚を食べて頭もカラダも元気に！知っておきたい魚を食べるメリ…",
      "link": "#",
      "imgSrc": "/images/column-2.jpg",
      "time": "2021.05.17   23:25",
      "tags": ["#魚料理", "#和食", "#DHA"]
    },
    {
      "title": "魚を食べて頭もカラダも元気に！知っておきたい魚を食べるメリ…",
      "link": "#",
      "imgSrc": "/images/column-3.jpg",
      "time": "2021.05.17   23:25",
      "tags": ["#魚料理", "#和食", "#DHA"]
    },
    {
      "title": "魚を食べて頭もカラダも元気に！知っておきたい魚を食べるメリ…知っておきたい魚を食べるメリ…知っておきたい魚を食べるメリ…",
      "link": "#",
      "imgSrc": "/images/column-4.jpg",
      "time": "2021.05.17   23:25",
      "tags": ["#魚料理", "#和食", "#DHA"]
    },
    {
      "title": "魚を食べて頭もカラダも元気に！知っておきたい魚を食べるメリ…",
      "link": "#",
      "imgSrc": "/images/column-5.jpg",
      "time": "2021.05.17   23:25",
      "tags": ["#魚料理", "#和食", "#DHA"]
    },
    {
      "title": "魚を食べて頭もカラダも元気に！知っておきたい魚を食べるメリ…",
      "link": "#",
      "imgSrc": "/images/column-6.jpg",
      "time": "2021.05.17   23:25",
      "tags": ["#魚料理", "#和食", "#DHA"]
    },
    {
      "title": "魚を食べて頭もカラダも元気に！知っておきたい魚を食べるメリ…",
      "link": "#",
      "imgSrc": "/images/column-7.jpg",
      "time": "2021.05.17   23:25",
      "tags": ["#魚料理", "#和食", "#DHA"]
    },
    {
      "title": "魚を食べて頭もカラダも元気に！知っておきたい魚を食べるメリ…",
      "link": "#",
      "imgSrc": "/images/column-8.jpg",
      "time": "2021.05.17   23:25",
      "tags": ["#魚料理", "#和食", "#DHA"]
    }
  ]
}
